^C:\USERS\SAM\DESKTOP\ROCKETPOWEREDENGINE\LIBS\LIBOVRKERNEL\SRC\GL\CAPI_GLE.CPP|C:\USERS\SAM\DESKTOP\ROCKETPOWEREDENGINE\LIBS\LIBOVRKERNEL\SRC\KERNEL\OVR_ALG.CPP|C:\USERS\SAM\DESKTOP\ROCKETPOWEREDENGINE\LIBS\LIBOVRKERNEL\SRC\KERNEL\OVR_ALLOCATOR.CPP|C:\USERS\SAM\DESKTOP\ROCKETPOWEREDENGINE\LIBS\LIBOVRKERNEL\SRC\KERNEL\OVR_ATOMIC.CPP|C:\USERS\SAM\DESKTOP\ROCKETPOWEREDENGINE\LIBS\LIBOVRKERNEL\SRC\KERNEL\OVR_CALLBACKS.CPP|C:\USERS\SAM\DESKTOP\ROCKETPOWEREDENGINE\LIBS\LIBOVRKERNEL\SRC\KERNEL\OVR_CRC32.CPP|C:\USERS\SAM\DESKTOP\ROCKETPOWEREDENGINE\LIBS\LIBOVRKERNEL\SRC\KERNEL\OVR_DEBUGHELP.CPP|C:\USERS\SAM\DESKTOP\ROCKETPOWEREDENGINE\LIBS\LIBOVRKERNEL\SRC\KERNEL\OVR_FILE.CPP|C:\USERS\SAM\DESKTOP\ROCKETPOWEREDENGINE\LIBS\LIBOVRKERNEL\SRC\KERNEL\OVR_FILEFILE.CPP|C:\USERS\SAM\DESKTOP\ROCKETPOWEREDENGINE\LIBS\LIBOVRKERNEL\SRC\KERNEL\OVR_JSON.CPP|C:\USERS\SAM\DESKTOP\ROCKETPOWEREDENGINE\LIBS\LIBOVRKERNEL\SRC\KERNEL\OVR_LOG.CPP|C:\USERS\SAM\DESKTOP\ROCKETPOWEREDENGINE\LIBS\LIBOVRKERNEL\SRC\KERNEL\OVR_RAND.CPP|C:\USERS\SAM\DESKTOP\ROCKETPOWEREDENGINE\LIBS\LIBOVRKERNEL\SRC\KERNEL\OVR_REFCOUNT.CPP|C:\USERS\SAM\DESKTOP\ROCKETPOWEREDENGINE\LIBS\LIBOVRKERNEL\SRC\KERNEL\OVR_SHAREDMEMORY.CPP|C:\USERS\SAM\DESKTOP\ROCKETPOWEREDENGINE\LIBS\LIBOVRKERNEL\SRC\KERNEL\OVR_STD.CPP|C:\USERS\SAM\DESKTOP\ROCKETPOWEREDENGINE\LIBS\LIBOVRKERNEL\SRC\KERNEL\OVR_STRING.CPP|C:\USERS\SAM\DESKTOP\ROCKETPOWEREDENGINE\LIBS\LIBOVRKERNEL\SRC\KERNEL\OVR_STRING_FORMATUTIL.CPP|C:\USERS\SAM\DESKTOP\ROCKETPOWEREDENGINE\LIBS\LIBOVRKERNEL\SRC\KERNEL\OVR_STRING_PATHUTIL.CPP|C:\USERS\SAM\DESKTOP\ROCKETPOWEREDENGINE\LIBS\LIBOVRKERNEL\SRC\KERNEL\OVR_SYSFILE.CPP|C:\USERS\SAM\DESKTOP\ROCKETPOWEREDENGINE\LIBS\LIBOVRKERNEL\SRC\KERNEL\OVR_SYSTEM.CPP|C:\USERS\SAM\DESKTOP\ROCKETPOWEREDENGINE\LIBS\LIBOVRKERNEL\SRC\KERNEL\OVR_THREADCOMMANDQUEUE.CPP|C:\USERS\SAM\DESKTOP\ROCKETPOWEREDENGINE\LIBS\LIBOVRKERNEL\SRC\KERNEL\OVR_THREADSPTHREAD.CPP|C:\USERS\SAM\DESKTOP\ROCKETPOWEREDENGINE\LIBS\LIBOVRKERNEL\SRC\KERNEL\OVR_THREADSWINAPI.CPP|C:\USERS\SAM\DESKTOP\ROCKETPOWEREDENGINE\LIBS\LIBOVRKERNEL\SRC\KERNEL\OVR_TIMER.CPP|C:\USERS\SAM\DESKTOP\ROCKETPOWEREDENGINE\LIBS\LIBOVRKERNEL\SRC\KERNEL\OVR_UTF8UTIL.CPP|C:\USERS\SAM\DESKTOP\ROCKETPOWEREDENGINE\LIBS\LIBOVRKERNEL\SRC\UTIL\UTIL_D3D11_BLITTER.CPP|C:\USERS\SAM\DESKTOP\ROCKETPOWEREDENGINE\LIBS\LIBOVRKERNEL\SRC\UTIL\UTIL_DIRECT3D.CPP|C:\USERS\SAM\DESKTOP\ROCKETPOWEREDENGINE\LIBS\LIBOVRKERNEL\SRC\UTIL\UTIL_GL_BLITTER.CPP|C:\USERS\SAM\DESKTOP\ROCKETPOWEREDENGINE\LIBS\LIBOVRKERNEL\SRC\UTIL\UTIL_IMAGEWINDOW.CPP|C:\USERS\SAM\DESKTOP\ROCKETPOWEREDENGINE\LIBS\LIBOVRKERNEL\SRC\UTIL\UTIL_LONGPOLLTHREAD.CPP|C:\USERS\SAM\DESKTOP\ROCKETPOWEREDENGINE\LIBS\LIBOVRKERNEL\SRC\UTIL\UTIL_SYSTEMGUI.CPP|C:\USERS\SAM\DESKTOP\ROCKETPOWEREDENGINE\LIBS\LIBOVRKERNEL\SRC\UTIL\UTIL_SYSTEMINFO.CPP|C:\USERS\SAM\DESKTOP\ROCKETPOWEREDENGINE\LIBS\LIBOVRKERNEL\SRC\UTIL\UTIL_WATCHDOG.CPP
C:\USERS\SAM\DESKTOP\ROCKETPOWEREDENGINE\LIBS\LIBOVRKERNEL\OBJ\LIBOVRKERNEL\WINDOWS\X64\DEBUG\VS2013\OVR_ALLOCATOR.OBJ
C:\USERS\SAM\DESKTOP\ROCKETPOWEREDENGINE\LIBS\LIBOVRKERNEL\OBJ\LIBOVRKERNEL\WINDOWS\X64\DEBUG\VS2013\OVR_LOG.OBJ
C:\USERS\SAM\DESKTOP\ROCKETPOWEREDENGINE\LIBS\LIBOVRKERNEL\OBJ\LIBOVRKERNEL\WINDOWS\X64\DEBUG\VS2013\OVR_STD.OBJ
C:\USERS\SAM\DESKTOP\ROCKETPOWEREDENGINE\LIBS\LIBOVRKERNEL\OBJ\LIBOVRKERNEL\WINDOWS\X64\DEBUG\VS2013\OVR_STRING.OBJ
C:\USERS\SAM\DESKTOP\ROCKETPOWEREDENGINE\LIBS\LIBOVRKERNEL\OBJ\LIBOVRKERNEL\WINDOWS\X64\DEBUG\VS2013\OVR_SYSTEM.OBJ
C:\USERS\SAM\DESKTOP\ROCKETPOWEREDENGINE\LIBS\LIBOVRKERNEL\OBJ\LIBOVRKERNEL\WINDOWS\X64\DEBUG\VS2013\UTIL_D3D11_BLITTER.OBJ
C:\USERS\SAM\DESKTOP\ROCKETPOWEREDENGINE\LIBS\LIBOVRKERNEL\OBJ\LIBOVRKERNEL\WINDOWS\X64\DEBUG\VS2013\UTIL_SYSTEMINFO.OBJ
C:\USERS\SAM\DESKTOP\ROCKETPOWEREDENGINE\LIBS\LIBOVRKERNEL\OBJ\LIBOVRKERNEL\WINDOWS\X64\DEBUG\VS2013\CAPI_GLE.OBJ
C:\USERS\SAM\DESKTOP\ROCKETPOWEREDENGINE\LIBS\LIBOVRKERNEL\OBJ\LIBOVRKERNEL\WINDOWS\X64\DEBUG\VS2013\OVR_CRC32.OBJ
C:\USERS\SAM\DESKTOP\ROCKETPOWEREDENGINE\LIBS\LIBOVRKERNEL\OBJ\LIBOVRKERNEL\WINDOWS\X64\DEBUG\VS2013\OVR_DEBUGHELP.OBJ
C:\USERS\SAM\DESKTOP\ROCKETPOWEREDENGINE\LIBS\LIBOVRKERNEL\OBJ\LIBOVRKERNEL\WINDOWS\X64\DEBUG\VS2013\OVR_RAND.OBJ
C:\USERS\SAM\DESKTOP\ROCKETPOWEREDENGINE\LIBS\LIBOVRKERNEL\OBJ\LIBOVRKERNEL\WINDOWS\X64\DEBUG\VS2013\OVR_REFCOUNT.OBJ
C:\USERS\SAM\DESKTOP\ROCKETPOWEREDENGINE\LIBS\LIBOVRKERNEL\OBJ\LIBOVRKERNEL\WINDOWS\X64\DEBUG\VS2013\OVR_STRING_PATHUTIL.OBJ
C:\USERS\SAM\DESKTOP\ROCKETPOWEREDENGINE\LIBS\LIBOVRKERNEL\OBJ\LIBOVRKERNEL\WINDOWS\X64\DEBUG\VS2013\OVR_THREADSPTHREAD.OBJ
C:\USERS\SAM\DESKTOP\ROCKETPOWEREDENGINE\LIBS\LIBOVRKERNEL\OBJ\LIBOVRKERNEL\WINDOWS\X64\DEBUG\VS2013\OVR_THREADSWINAPI.OBJ
C:\USERS\SAM\DESKTOP\ROCKETPOWEREDENGINE\LIBS\LIBOVRKERNEL\OBJ\LIBOVRKERNEL\WINDOWS\X64\DEBUG\VS2013\UTIL_GL_BLITTER.OBJ
C:\USERS\SAM\DESKTOP\ROCKETPOWEREDENGINE\LIBS\LIBOVRKERNEL\OBJ\LIBOVRKERNEL\WINDOWS\X64\DEBUG\VS2013\UTIL_LONGPOLLTHREAD.OBJ
C:\USERS\SAM\DESKTOP\ROCKETPOWEREDENGINE\LIBS\LIBOVRKERNEL\OBJ\LIBOVRKERNEL\WINDOWS\X64\DEBUG\VS2013\OVR_ATOMIC.OBJ
C:\USERS\SAM\DESKTOP\ROCKETPOWEREDENGINE\LIBS\LIBOVRKERNEL\OBJ\LIBOVRKERNEL\WINDOWS\X64\DEBUG\VS2013\OVR_FILE.OBJ
C:\USERS\SAM\DESKTOP\ROCKETPOWEREDENGINE\LIBS\LIBOVRKERNEL\OBJ\LIBOVRKERNEL\WINDOWS\X64\DEBUG\VS2013\OVR_JSON.OBJ
C:\USERS\SAM\DESKTOP\ROCKETPOWEREDENGINE\LIBS\LIBOVRKERNEL\OBJ\LIBOVRKERNEL\WINDOWS\X64\DEBUG\VS2013\OVR_STRING_FORMATUTIL.OBJ
C:\USERS\SAM\DESKTOP\ROCKETPOWEREDENGINE\LIBS\LIBOVRKERNEL\OBJ\LIBOVRKERNEL\WINDOWS\X64\DEBUG\VS2013\OVR_THREADCOMMANDQUEUE.OBJ
C:\USERS\SAM\DESKTOP\ROCKETPOWEREDENGINE\LIBS\LIBOVRKERNEL\OBJ\LIBOVRKERNEL\WINDOWS\X64\DEBUG\VS2013\OVR_UTF8UTIL.OBJ
C:\USERS\SAM\DESKTOP\ROCKETPOWEREDENGINE\LIBS\LIBOVRKERNEL\OBJ\LIBOVRKERNEL\WINDOWS\X64\DEBUG\VS2013\UTIL_DIRECT3D.OBJ
C:\USERS\SAM\DESKTOP\ROCKETPOWEREDENGINE\LIBS\LIBOVRKERNEL\OBJ\LIBOVRKERNEL\WINDOWS\X64\DEBUG\VS2013\UTIL_WATCHDOG.OBJ
C:\USERS\SAM\DESKTOP\ROCKETPOWEREDENGINE\LIBS\LIBOVRKERNEL\OBJ\LIBOVRKERNEL\WINDOWS\X64\DEBUG\VS2013\OVR_ALG.OBJ
C:\USERS\SAM\DESKTOP\ROCKETPOWEREDENGINE\LIBS\LIBOVRKERNEL\OBJ\LIBOVRKERNEL\WINDOWS\X64\DEBUG\VS2013\OVR_CALLBACKS.OBJ
C:\USERS\SAM\DESKTOP\ROCKETPOWEREDENGINE\LIBS\LIBOVRKERNEL\OBJ\LIBOVRKERNEL\WINDOWS\X64\DEBUG\VS2013\OVR_FILEFILE.OBJ
C:\USERS\SAM\DESKTOP\ROCKETPOWEREDENGINE\LIBS\LIBOVRKERNEL\OBJ\LIBOVRKERNEL\WINDOWS\X64\DEBUG\VS2013\OVR_SHAREDMEMORY.OBJ
C:\USERS\SAM\DESKTOP\ROCKETPOWEREDENGINE\LIBS\LIBOVRKERNEL\OBJ\LIBOVRKERNEL\WINDOWS\X64\DEBUG\VS2013\OVR_SYSFILE.OBJ
C:\USERS\SAM\DESKTOP\ROCKETPOWEREDENGINE\LIBS\LIBOVRKERNEL\OBJ\LIBOVRKERNEL\WINDOWS\X64\DEBUG\VS2013\OVR_TIMER.OBJ
C:\USERS\SAM\DESKTOP\ROCKETPOWEREDENGINE\LIBS\LIBOVRKERNEL\OBJ\LIBOVRKERNEL\WINDOWS\X64\DEBUG\VS2013\UTIL_IMAGEWINDOW.OBJ
C:\USERS\SAM\DESKTOP\ROCKETPOWEREDENGINE\LIBS\LIBOVRKERNEL\OBJ\LIBOVRKERNEL\WINDOWS\X64\DEBUG\VS2013\UTIL_SYSTEMGUI.OBJ
^C:\USERS\SAM\DESKTOP\ROCKETPOWEREDENGINE\LIBS\LIBOVRKERNEL\SRC\KERNEL\OVR_MACH_EXC_OSX.C
C:\USERS\SAM\DESKTOP\ROCKETPOWEREDENGINE\LIBS\LIBOVRKERNEL\OBJ\LIBOVRKERNEL\WINDOWS\X64\DEBUG\VS2013\OVR_MACH_EXC_OSX.OBJ
